Imię/imiona;Unikatowa zdolność;Siła;Zręczność;Siła czarów;Tężyzna;Wiedza;Inteligencja;Siła woli;Poziom życia;Poziom mana;Rasa;Płeć;Wyznawane bóstwo;Naturalne nastawienie/ charakter;Nastawienie do innych postaci;Rola w grze;Punkty doświadczenia;Poziom;Biografia
    Trent;Magia powietrza;16;24;13;18;19;17;16;5278;35672;Człowiek;K;Titrix;Neutralny;Neutralny;Złotnik;828256;91;
    Yevette;Urok;20;15;19;27;21;8;16;5270;32640;Smokowiec;K;Ukjun;Chaotyczny;Zły;Czarownik;723261;85;
    Danielle;Dobre samopoczucie;7;6;23;7;13;8;20;1600;35200;Elf leśny;M;Brak;Chaotyczny;Chaotyczny;Złotnik;640343;80;
    May;Magia umysłu;31;27;23;20;14;24;14;3120;17080;Smokowiec;K;Cydia;Praworządny;Praworządny;Czarownik;160669;40;
    Dede;Negocjacja;18;6;4;16;12;13;5;1920;3480;Elf;K;Kuarae;Dobry;Praworządny;Przewodnik;231261;48;
    Chu;Logistyka;12;11;24;26;11;16;21;637;6961;Biały ork;K;Ypphion;Chaotyczny;Praworządny;Straganiarz;17643;13;
    Marietta;Magia przyrody;28;17;22;25;22;15;17;3010;21564;Elf leśny;K;Titrix;Neutralny;Zły;Gwardzista;185899;43;
    Nana;Magia ognia;17;17;19;14;23;16;6;1776;6438;Krasnolud;M;Ukjun;Neutralny;Chaotyczny;Złotnik;137141;37;
    Irving;Oburęczność;23;9;13;11;21;17;20;602;7140;Smok;K;Adur;Praworządny;Chaotyczny;Kowal;20422;14;
    Caroline;Magia ziemi;20;23;9;11;25;25;9;4374;21505;Człowiek;K;Pinas;Dobry;Dobry;Wojownik;656590;81;
    Brenna;Negocjacja;7;14;26;17;21;22;12;2356;25668;Ork;M;Ukjun;Neutralny;Zły;Złotnik;385242;62;
    Stefania;Negocjacja;29;18;24;11;27;14;13;3538;25772;Smok;K;Iruna;Chaotyczny;Praworządny;Negocjator;372541;61;
    Dino;Magia powietrza;8;25;17;14;23;25;9;2585;16087;Ork;K;Utrix;Chaotyczny;Neutralny;Straganiarz;303369;55;
    Lena;Magia wody;10;14;19;9;15;14;19;1089;15048;Ork;K;Cudon;Praworządny;Dobry;Zabójca;109442;33;
    Willy;Zawadiaka;18;7;5;8;19;12;22;2343;28116;Krasnolud;M;Cydia;Praworządny;Dobry;Straganiarz;504100;71;
    Anton;Modlitwa;24;10;9;22;7;23;9;616;1930;Troll;K;Kuarae;Chaotyczny;Chaotyczny;Złodziej;13051;11;
    Latasha;Kradzież;9;14;24;13;17;19;24;540;10800;Smokowiec;M;Magaldir;Dobry;Zły;Złotnik;23041;15;
    Leatrice;Logistyka;10;21;25;25;21;8;19;840;7695;Człowiek;K;Ypphion;Chaotyczny;Zły;Straganiarz;22563;15;
    Dayna;Oburęczność;4;11;7;5;16;21;20;160;3520;Niziołek;K;Iruna;Dobry;Praworządny;Szlachcic;6910;8;
    Clarine;Oburęczność;27;23;13;20;14;26;18;1400;9540;Elf leśny;K;Cudon;Praworządny;Praworządny;Złotnik;40225;20;
    Bobette;Magia powietrza;20;33;27;17;27;23;31;5880;100254;Smokowiec;K;Titrix;Chaotyczny;Neutralny;Szaman;706083;84;
    Ricarda;Walka wręcz;26;16;19;21;22;26;13;4851;33533;Orkowy troll;M;Titrix;Dobry;Chaotyczny;Wojownik;593536;77;
    Owen;Magia wody;14;19;32;22;23;32;30;3465;82215;Elf leśny;K;Gibdros;Praworządny;Zły;Szlachcic;396999;63;
    Berta;Szczęście;26;27;14;12;26;25;18;4355;39195;Elf leśny;K;Ukjun;Dobry;Chaotyczny;Straganiarz;448901;67;
    Ayesha;Dobre samopoczucie;12;14;12;8;19;8;12;1258;8658;Człowiek;M;Ryneas;Dobry;Praworządny;Animator;137554;37;
    Marisa;Dobre samopoczucie;23;15;9;27;26;22;20;325;2850;Ork;K;Ypphion;Praworządny;Zły;Straganiarz;3333;5;
    Ludie;Zawadiaka;26;22;25;25;17;28;12;5913;34020;Mroczny elf;M;Ypphion;Zły;Neutralny;Mag;656562;81;
    Arla;Smoczy duch;33;19;22;20;32;33;18;4536;49329;Gnom;M;Gibdros;Praworządny;Zły;Straganiarz;397173;63;
    Tasha;Magia wody;18;20;10;20;16;5;12;4466;14322;Krasnolud;K;Cudon;Praworządny;Zły;Animator;593099;77;
    Barb;Magia ognia;19;25;21;33;22;21;21;231;2016;Smokowiec;K;Oyja;Zły;Chaotyczny;Mag;1793;3;
    Jazmin;Zawadiaka;27;25;28;24;9;9;9;7220;19665;Elf leśny;M;Pinas;Praworządny;Chaotyczny;Animator;903023;95;
    Edward;Oburęczność;28;12;26;18;24;11;17;2552;22814;Smokowiec;M;Cydia;Neutralny;Dobry;Złodziej;194036;44;
    Theo;Magia umysłu;14;23;8;21;19;14;4;4234;5986;Gnom;K;Adur;Praworządny;Praworządny;Mag;533888;73;
    Rachael;Walka tarczą;5;17;10;9;7;2;21;403;2593;Smokowiec;K;Ytris;Chaotyczny;Zły;Zabójca;16926;13;
    Lorena;Źródło magii;30;13;17;31;21;15;28;814;8162;Elf;M;Eesis;Praworządny;Chaotyczny;Szlachcic;12335;11;
    Herb;Oburęczność;15;9;13;26;13;18;21;3750;34650;Gnom;M;Cudon;Praworządny;Praworządny;Szaman;563256;75;
    Jayme;Kradzież;15;13;27;12;22;13;10;1040;8060;Goblin;M;Yfone;Zły;Dobry;Czarownik;68556;26;
    Desmond;Magia przyrody;19;24;30;16;31;21;20;4189;58220;Człowiek;M;Titrix;Zły;Dobry;Kuglarz;504532;71;
    Sebastian;Oburęczność;30;32;22;35;32;20;23;3783;33189;Mroczny elf;K;Upmes;Zły;Neutralny;Mag;152112;39;
    Betty;Modlitwa;12;11;25;24;9;26;14;4136;36960;Niziołek;M;Ukjun;Zły;Zły;Zabójca;775305;88;
    Verla;Magia wody;20;27;27;24;14;14;32;3195;39600;Mroczny elf;M;Ypphion;Neutralny;Praworządny;Szaman;202956;45;
    Ciara;Dowodzenie;20;14;12;21;16;16;8;3740;11968;Elf;K;Utrix;Zły;Neutralny;Złodziej;463089;68;
    Fredericka;Zawadiaka;21;13;32;33;27;18;29;3350;55825;Niziołek;K;Ytris;Zły;Zły;Kuglarz;250582;50;
    Magnolia;Negocjacja;15;15;21;11;20;19;26;2747;52260;Goblin;K;Upmes;Neutralny;Chaotyczny;Czarownik;449629;67;
    Malinda;Urok;10;18;21;27;22;10;7;3575;12057;Elf;M;Titrix;Praworządny;Praworządny;Przewodnik;422851;65;
    Virgil;Urok;11;25;17;8;25;23;18;1100;14625;Elf;M;Gibdros;Praworządny;Dobry;Złotnik;62967;25;
    Lennie;Zasadzka;31;22;29;13;24;18;15;990;7987;Człowiek;K;Luton;Dobry;Praworządny;Mag;22892;15;
    Willodean;Zawadiaka;22;27;14;29;28;22;25;6552;67200;Biały ork;K;Cydia;Praworządny;Chaotyczny;Złodziej;706542;84;
Lynnette  ;Magia umysłu;24;24;17;27;14;22;13;6375;29282;Człowiek;K;Magaldir;Chaotyczny;Chaotyczny;Straganiarz;722864;85;
Willis  ;Kradzież;10;22;18;26;15;25;10;3828;19140;Mroczny elf;K;Utrix;Chaotyczny;Chaotyczny;Straganiarz;435768;66;
Scot  ;Dobre samopoczucie;8;11;19;13;22;26;10;2560;26800;Biały ork;M;Cudon;Neutralny;Praworządny;Kowal;640495;80;
Ilene  ;Magia ziemi;14;22;26;26;23;17;11;2170;12705;Troll;M;Upmes;Praworządny;Zły;Złotnik;123246;35;
Arnetta  ;Oburęczność;9;18;9;10;11;9;6;1628;3828;Elf;M;Ryneas;Dobry;Neutralny;Szlachcic;194059;44;
Arnita  ;Walka tarczą;28;28;15;22;25;20;14;2574;13860;Gnom;K;Magaldir;Praworządny;Praworządny;Kuglarz;109267;33;
Corliss  ;Walka tarczą;13;23;13;13;13;6;23;1862;13984;Goblin;K;Iruna;Dobry;Neutralny;Kuglarz;145132;38;
Roma  ;Dowodzenie;12;7;17;25;16;21;23;616;8694;Goblin;M;Ytris;Chaotyczny;Zły;Gwardzista;20571;14;
Chantay  ;Magia wody;27;23;29;22;18;13;15;3744;23400;Goblin;K;Iruna;Neutralny;Zły;Gwardzista;271048;52;
Andy  ;Magia umysłu;16;11;9;17;11;9;9;4136;12267;Smok;K;Cudon;Chaotyczny;Chaotyczny;Wojownik;884523;94;
Edwardo  ;Walka tarczą;12;22;31;25;29;16;14;590;5320;Elf leśny;K;Luton;Neutralny;Praworządny;Gwardzista;10898;10;
Alina  ;Magia ognia;12;26;12;23;8;16;26;3477;26676;Smokowiec;M;Luton;Dobry;Praworządny;Wojownik;325897;57;
Palmer  ;Logistyka;10;11;23;18;18;24;16;273;3640;Smokowiec;K;Pinas;Neutralny;Praworządny;Szlachcic;5041;7;
Rosalinda  ;Walka tarczą;19;13;23;13;12;27;26;270;4836;Smok;M;Eesis;Chaotyczny;Dobry;Złotnik;3902;6;
Ewa  ;Negocjacja;11;10;16;12;25;17;26;2673;61074;Goblin;K;Sypton;Praworządny;Praworządny;Negocjator;656942;81;
Ursula  ;Walka tarczą;18;24;16;31;30;22;17;1241;9826;Mroczny elf;M;Upmes;Praworządny;Zły;Gwardzista;29233;17;
Malisa  ;Walka tarczą;19;22;13;12;18;29;23;3975;51750;Troll;M;Magaldir;Dobry;Zły;Złotnik;563131;75;
Priscila  ;Walka wręcz;12;9;20;23;25;26;21;3300;55912;Troll;M;Ytris;Chaotyczny;Zły;Płatnerz;563032;75;
Marcela  ;Logistyka;18;27;25;18;30;27;29;3339;63017;Biały ork;K;Ryneas;Neutralny;Chaotyczny;Kowal;280901;53;
Arden  ;Magia przyrody;13;9;6;20;14;18;19;3528;30324;Troll;K;Gibdros;Zły;Dobry;Szaman;706036;84;
Arianna  ;Smoczy duch;31;18;17;30;25;28;33;948;13860;Smokowiec;K;Oyja;Neutralny;Chaotyczny;Złotnik;14869;12;
Rosalia  ;Magia wody;28;27;16;15;13;27;12;5390;25872;Mroczny elf;M;Ryneas;Chaotyczny;Chaotyczny;Kowal;593184;77;
Deloris  ;Logistyka;17;19;20;26;29;28;20;2790;34650;Smok;K;Kuarae;Neutralny;Dobry;Gwardzista;203372;45;
Amber  ;Źródło magii;29;27;25;19;27;23;13;4050;26325;Smokowiec;M;Oyja;Neutralny;Chaotyczny;Płatnerz;291638;54;
Ha  ;Magia przyrody;34;27;34;26;23;25;29;7395;101065;Troll;K;Oyja;Praworządny;Dobry;Kuglarz;722962;85;
Elaine  ;Magia przyrody;17;21;26;23;16;25;27;5368;79596;Elf;K;Magaldir;Neutralny;Dobry;Kuglarz;775226;88;
Ilana  ;Szczęście;28;14;9;22;23;15;23;5312;44861;Krasnolud;K;Brak;Dobry;Praworządny;Negocjator;689256;83;
Ka  ;Magia umysłu;12;23;17;16;29;18;10;2754;17280;Goblin;M;Ryneas;Praworządny;Praworządny;Szaman;292407;54;
Adria  ;Zasadzka;24;21;24;30;32;29;28;1425;22610;Troll;K;Pinas;Praworządny;Dobry;Szlachcic;36982;19;
Jeanelle  ;Smoczy duch;20;24;9;26;11;13;16;4760;17952;Smok;K;Luton;Praworządny;Chaotyczny;Wojownik;463142;68;
Joesph  ;Negocjacja;25;35;27;31;28;24;23;5733;57235;Smokowiec;K;Ypphion;Zły;Dobry;Szaman;397332;63;
Dulcie  ;Walka tarczą;14;23;33;32;27;23;13;6624;51792;Elf;K;Magaldir;Dobry;Praworządny;Straganiarz;922411;96;
Veta  ;Magia ognia;24;29;20;20;26;16;18;6862;52452;Biały ork;M;Brak;Dobry;Dobry;Wojownik;884596;94;
Camilla  ;Magia ziemi;29;31;20;36;24;36;19;7296;57760;Smok;M;Oyja;Dobry;Zły;Negocjator;578032;76;
Haley  ;Logistyka;23;27;10;12;11;24;29;6076;63945;Troll;M;Cydia;Zły;Neutralny;Płatnerz;960607;98;
Susan  ;Dobre samopoczucie;24;22;19;21;24;21;23;4221;46368;Człowiek;M;Titrix;Dobry;Zły;Kowal;397190;63;
Paris  ;Zasadzka;2;6;22;11;11;14;10;1368;16920;Mroczny elf;M;Titrix;Zły;Neutralny;Negocjator;519243;72;
Agnus  ;Oburęczność;22;26;32;21;25;28;17;1380;14450;Krasnolud;K;Upmes;Dobry;Chaotyczny;Kowal;40304;20;
Chas  ;Magia powietrza;36;17;29;25;20;30;29;3744;54984;Mroczny elf;K;Yfone;Neutralny;Praworządny;Animator;230429;48;
Cleopatra  ;Oburęczność;18;17;16;12;2;5;20;4183;20470;Elf leśny;M;Gibdros;Zły;Chaotyczny;Górnik;792757;89;
Blair  ;Zawadiaka;22;20;7;25;23;15;10;67;225;Elf;M;Ytris;Zły;Chaotyczny;Przewodnik;964;1;
Elma  ;Dowodzenie;26;11;26;12;12;27;26;294;5070;Biały ork;K;Gibdros;Zły;Chaotyczny;Mag;3936;6;
Zenobia  ;Skradanie ;12;11;14;7;20;7;15;1590;16297;Elf leśny;M;Utrix;Dobry;Dobry;Szaman;281469;53;
Euna  ;Dobre samopoczucie;4;4;12;16;23;13;20;792;15840;Smok;K;Cudon;Chaotyczny;Dobry;Kowal;109664;33;
Brett  ;Walka wręcz;12;8;10;6;11;22;24;338;6708;Człowiek;K;Utrix;Dobry;Praworządny;Płatnerz;17603;13;
Maybell  ;Kradzież;7;23;15;16;7;9;9;644;1953;Krasnolud;M;Ypphion;Dobry;Chaotyczny;Animator;20500;14;
Conchita  ;Urok;32;23;33;26;33;24;35;3321;64575;Smokowiec;K;Sypton;Zły;Chaotyczny;Szlachcic;168123;41;
Hayden  ;Dowodzenie;14;11;27;23;14;11;24;4656;60528;Orkowy troll;M;Iruna;Praworządny;Praworządny;Wojownik;941197;97;
Elli  ;Negocjacja;17;25;30;23;23;31;26;3445;57876;Ork;M;Brak;Chaotyczny;Neutralny;Przewodnik;281446;53;
Peter;Magia ziemi;18;22;19;19;25;31;17;5133;55462;Smok;K;Ypphion;Zły;Praworządny;Kowal;757225;87;
Shantel  ;Szczęście;29;19;19;32;23;18;22;4720;38940;Biały ork;M;Adur;Zły;Praworządny;Negocjator;348646;59;
Shaina  ;Modlitwa;23;5;4;22;17;15;21;4450;33642;Niziołek;K;Upmes;Dobry;Dobry;Przewodnik;792598;89;
Ladawn  ;Magia ziemi;8;13;5;15;1;12;3;1440;1080;Orkowy troll;M;Cydia;Chaotyczny;Chaotyczny;Czarownik;160852;40;
